Can you predict a Cinderella team? - Peyton Kort Blog
…
What I want to figure out is whether I could predict a Cinderella Team (like VCU and UCLA) based off stats. So I decided to compare each teams stats.

thisyear %>%
  separate(School, into=c("School", "Tournament"), sep="NCAA") %>%
  arrange(Rk)

## Warning: Expected 2 pieces. Missing pieces filled with `NA` in 287 rows [2, 3,
## 4, 5, 6, 8, 9, 10, 12, 13, 14, 15, 16, 18, 19, 20, 21, 23, 24, 25, ...].

## # A tibble: 355 x 34
##       Rk School Tournament     G     W     L `W-L%`    SRS    SOS `Conference W`
##    <dbl> <chr>  <chr>      <dbl> <dbl> <dbl>  <dbl>  <dbl>  <dbl>          <dbl>
##  1     1 "Abil… ""            29    24     5  0.828   6.24  -6.4              13
##  2     2 "Air …  <NA>         25     5    20  0.2   -12.9    0.27              3
##  3     3 "Akro…  <NA>         23    15     8  0.652   1.86  -1.95             12
##  4     4 "Alab…  <NA>         15     6     9  0.4   -18.9  -15.0               4
##  5     5 "Alab…  <NA>         29    22     7  0.759   5.81  -3.82             13
##  6     6 "Alab…  <NA>         18     4    14  0.222 -24.3  -17.0               4
##  7     7 "Alab… ""            33    26     7  0.788  19.6    9.99             16
##  8     8 "Alba…  <NA>         16     7     9  0.438  -4.55  -5.24              6
##  9     9 "Alco…  <NA>         19     6    13  0.316 -19.6  -10.1               6
## 10    10 "Amer…  <NA>         10     4     6  0.4    -6.32  -1.82              4
## # … with 345 more rows, and 24 more variables: `Conference L` <dbl>, `Home
## #   W` <dbl>, `Home L` <dbl>, `Away W` <dbl>, `Away L` <dbl>, `Total
## #   Points` <dbl>, `Opponent Points` <dbl>, MP <dbl>, FG <dbl>, FGA <dbl>,
## #   `FG%` <dbl>, `3P` <dbl>, `3PA` <dbl>, `3P%` <dbl>, FT <dbl>, FTA <dbl>,
## #   `FT%` <dbl>, ORB <dbl>, TRB <dbl>, AST <dbl>, STL <dbl>, BLK <dbl>,
## #   TOV <dbl>, PF <dbl>

vcuyear %>%
  separate(School, into=c("School", "Tournament"), sep="NCAA") %>%
  arrange(Rk)

## Warning: Expected 2 pieces. Missing pieces filled with `NA` in 277 rows [1, 3,
## 6, 7, 8, 9, 10, 11, 14, 15, 16, 17, 18, 19, 20, 21, 23, 24, 25, 26, ...].

## # A tibble: 345 x 34
##       Rk School Tournament     G     W     L `W-L%`    SRS    SOS `Conference W`
##    <dbl> <chr>  <chr>      <dbl> <dbl> <dbl>  <dbl>  <dbl>  <dbl>          <dbl>
##  1     1 "Air …  <NA>         32    16    16  0.5     2.71   3.31              6
##  2     2 "Akro… ""            36    23    13  0.639   2.15  -1.02              9
##  3     3 "Alab…  <NA>         28    13    15  0.464 -15.2  -11.8              10
##  4     4 "Alab… ""            31    22     9  0.71    8.55   2.78             12
##  5     5 "Alab… ""            35    17    18  0.486 -13.4  -10.3              11
##  6     6 "Alab…  <NA>         37    25    12  0.676  11.7    4.27             12
##  7     7 "Alba…  <NA>         32    16    16  0.5    -7.05  -5.96              9
##  8     8 "Alco…  <NA>         28     4    24  0.143 -23.0   -8.02              4
##  9     9 "Amer…  <NA>         31    22     9  0.71   -3.13  -5.64             11
## 10    10 "Appa…  <NA>         31    16    15  0.516  -4.81  -2.95             10
## # … with 335 more rows, and 24 more variables: `Conference L` <dbl>, `Home
## #   W` <dbl>, `Home L` <dbl>, `Away W` <dbl>, `Away L` <dbl>, `Total
## #   Points` <dbl>, `Opponent Points` <dbl>, MP <dbl>, FG <dbl>, FGA <dbl>,
## #   `FG%` <dbl>, `3P` <dbl>, `3PA` <dbl>, `3P%` <dbl>, FT <dbl>, FTA <dbl>,
## #   `FT%` <dbl>, ORB <dbl>, TRB <dbl>, AST <dbl>, STL <dbl>, BLK <dbl>,
## #   TOV <dbl>, PF <dbl>
…
